// Jest Snapshot v1, https://goo.gl/fbAQLP

exports[`AlertsServiceForm with default values renders "authorization-key" input 1`] = `"<glforminput-stub id=\\"authorization-key\\" readonly=\\"true\\" value=\\"abcedfg123\\"></glforminput-stub>"`;

exports[`AlertsServiceForm with default values renders "url" input 1`] = `"<glforminput-stub id=\\"url\\" readonly=\\"true\\" value=\\"https://gitlab.com/endpoint-url\\"></glforminput-stub>"`;

exports[`AlertsServiceForm with default values renders toggle button 1`] = `"<togglebutton-stub id=\\"activated\\"></togglebutton-stub>"`;

exports[`AlertsServiceForm with default values shows description and "Learn More" link 1`] = `"Each alert source must be authorized using the following URL and authorization key. <a href=\\"example.com/learn-more\\" target=\\"_blank\\" rel=\\"noopener noreferrer\\">Learn more</a> about configuring this endpoint to receive alerts."`;

exports[`AlertsServiceForm without learnMoreUrl shows description but not "Learn More" link 1`] = `"Each alert source must be authorized using the following URL and authorization key."`;
